COMPSCIX 415.2 Homework 7
…
Q1: How would you interpret the coefficients on GrLivArea and OverallQual?

Answer: For every unit of GrLivArea increased, the price increases by $55.56. For every unit increase of OverallQual, the sale price of the house increases by $20,951.

houseprices_lm2 <- lm(formula= SalePrice ~ GrLivArea + OverallQual + Neighborhood, data = train_data)
tidy(houseprices_lm2)

## # A tibble: 27 x 5
##    term                estimate std.error statistic  p.value
##    <chr>                  <dbl>     <dbl>     <dbl>    <dbl>
##  1 (Intercept)         -34829.   11541.       -3.02 2.59e- 3
##  2 GrLivArea               55.6      2.50     22.2  2.38e-94
##  3 OverallQual          20951.    1162.       18.0  1.24e-65
##  4 NeighborhoodBlueste -30753.   27697.       -1.11 2.67e- 1
##  5 NeighborhoodBrDale  -43359.   12979.       -3.34 8.57e- 4
##  6 NeighborhoodBrkSide -13025.   10450.       -1.25 2.13e- 1
##  7 NeighborhoodClearCr  24576.   11570.        2.12 3.38e- 2
##  8 NeighborhoodCollgCr  11414.    9497.        1.20 2.30e- 1
##  9 NeighborhoodCrawfor  14444.   10502.        1.38 1.69e- 1
## 10 NeighborhoodEdwards -17843.    9986.       -1.79 7.42e- 2
## # ... with 17 more rows
…
Q5. Is the model a good fit?

Answer: Because the adjusted R squared value is close to 1, the model is a good fit.

Exercise 6:

One downside of the linear model is that it is sensitive to unusual values because the distance incorporates a squared term. Fit a linear model to the simulated data below (use y as the target and x as the feature), and look at the resulting coefficients and R-squared. Rerun it about 5-6 times to generate different simulated datasets. What do you notice about the models coefficient on x and the R-squared values?

sim1a <- tibble(
  x = rep(1:10, each = 3),
  y = x * 1.5 + 6 + rt(length(x), df = 2)
)
sim1a

## # A tibble: 30 x 2
##        x     y
##    <int> <dbl>
##  1     1  6.41
##  2     1  5.93
##  3     1  8.35
##  4     2  9.50
##  5     2  9.57
##  6     2  9.32
##  7     3  9.05
##  8     3 13.6 
##  9     3  6.94
## 10     4 13.4 
## # ... with 20 more rows
…
